<svg width="43" height="45" viewBox="0 0 43 45" fill="none" xmlns="http://www.w3.org/2000/svg">
<path d="M4.50949 10.9875C5.73015 3.09115 12.8663 -2.58044 20.3154 1.2424C22.0056 2.08844 24.2591 3.84319 25.4171 5.34726C28.547 9.35811 29.3608 14.3403 32.5846 18.2572C31.3952 19.1659 29.9555 20.1059 28.234 21.0147L26.2309 18.3199L26.9195 21.6727C21.9117 24.0855 14.8381 26.0596 5.16677 25.9969C3.97741 20.5133 3.88351 15.1864 4.50949 10.9875Z" fill="#0E2E35"/>
<path d="M19.3454 18.7896C19.3454 18.7896 19.3767 19.009 19.4393 19.385C19.7523 21.1397 21.0042 26.968 21.8493 28.5661C22.8821 30.5088 18.3438 36.6818 14.0246 35.9297C12.7413 35.7104 15.12 30.2581 14.9948 29.6941C14.7757 28.5974 14.4627 27.0933 14.1811 25.5266C14.0246 24.6492 13.8368 23.7718 13.6803 22.9258C13.2108 20.5757 12.8352 18.6329 12.8352 18.6329L19.3454 18.7896Z" fill="#F8B2A2"/>
<path d="M14.9631 3.93701C14.9631 3.93701 18.0304 3.59233 19.9709 6.06777C21.9114 8.54322 23.9772 16.2829 19.1884 20.4818C14.3997 24.6806 9.67358 19.9178 8.985 14.9042C8.26513 9.85929 8.01474 3.749 14.9631 3.93701Z" fill="#F8B2A2"/>
<path d="M14.6189 3.1225C14.6189 3.1225 18.7191 10.4548 21.6611 10.7995C24.6032 11.1442 24.9788 15.0297 24.9788 15.0297C24.9788 15.0297 23.9147 6.03663 21.0352 4.31322C18.1244 2.55847 14.6189 3.1225 14.6189 3.1225Z" fill="#0E2E35"/>
<path fill-rule="evenodd" clip-rule="evenodd" d="M34.3377 32.922C37.0294 36.8075 42.2563 49.1847 42.2563 49.1847L29.5176 51.1275C29.5176 51.1275 28.9378 49.6021 28.1222 47.3944C27.0437 51.9846 25.3937 57.3733 24.0453 61.777C22.8862 65.5624 21.95 68.6199 21.7912 69.8167C21.2591 73.8275 24.4516 84.4814 24.4516 84.4814C24.4516 84.4814 7.36244 87.9282 2.44852 84.7007C2.44852 84.7007 1.97812 59.2147 2.3642 53.7989C1.60452 53.5167 0.869549 53.2618 0.190308 53.07C1.00408 49.2785 2.31863 45.1423 3.2889 42.1969C7.23256 30.1956 11.6457 30.697 11.6457 30.697L10.8967 36.2349C14.003 35.5376 18.5361 35.0351 18.5361 35.0351C18.5361 35.0351 21.1949 34.8637 23.9355 35.4246C23.5164 34.0905 23.1953 32.9619 23.0388 32.2013C22.1624 27.9711 30.9574 28.0964 34.3377 32.922Z" fill="#B5BBF5"/>
</svg>
