<svg width="1440" height="590" viewBox="0 0 1440 590" fill="none" xmlns="http://www.w3.org/2000/svg">
<mask id="mask0" mask-type="alpha" maskUnits="userSpaceOnUse" x="1311" y="146" width="367" height="444">
<ellipse cx="1494.36" cy="367.723" rx="119.806" ry="190.428" transform="rotate(-22.4132 1494.36 367.723)" fill="#4953BE"/>
</mask>
<g mask="url(#mask0)">
<rect width="248.064" height="3.70311" transform="matrix(0.798849 -0.601532 0.485994 0.873962 1404.83 439.893)" fill="#4953BE"/>
<rect width="248.064" height="3.70311" transform="matrix(0.798849 -0.601532 0.485994 0.873962 1398.74 428.943)" fill="#4953BE"/>
<rect width="248.064" height="3.70311" transform="matrix(0.798849 -0.601532 0.485994 0.873962 1392.65 417.993)" fill="#4953BE"/>
<rect width="248.064" height="3.70311" transform="matrix(0.798849 -0.601532 0.485994 0.873962 1410.92 450.843)" fill="#4953BE"/>
<rect width="248.064" height="3.70311" transform="matrix(0.798849 -0.601532 0.485994 0.873962 1417.01 461.792)" fill="#4953BE"/>
<rect width="248.064" height="3.70311" transform="matrix(0.798849 -0.601532 0.485994 0.873962 1423.1 472.742)" fill="#4953BE"/>
<rect width="248.064" height="3.70311" transform="matrix(0.798849 -0.601532 0.485994 0.873962 1429.19 483.692)" fill="#4953BE"/>
<rect width="248.064" height="3.70311" transform="matrix(0.798849 -0.601532 0.485994 0.873962 1436.23 510.226)" fill="#4953BE"/>
<rect width="248.064" height="3.70311" transform="matrix(0.798849 -0.601532 0.485994 0.873962 1430.14 499.276)" fill="#4953BE"/>
<rect width="248.064" height="3.70311" transform="matrix(0.798849 -0.601532 0.485994 0.873962 1368.95 388.638)" fill="#4953BE"/>
<rect width="248.064" height="3.70311" transform="matrix(0.798849 -0.601532 0.485994 0.873962 1362.87 377.689)" fill="#4953BE"/>
<rect width="248.064" height="3.70311" transform="matrix(0.798849 -0.601532 0.485994 0.873962 1356.78 366.739)" fill="#4953BE"/>
<rect width="248.064" height="3.70311" transform="matrix(0.798849 -0.601532 0.485994 0.873962 1375.04 399.588)" fill="#4953BE"/>
<rect width="248.064" height="3.70311" transform="matrix(0.798849 -0.601532 0.485994 0.873962 1381.13 410.538)" fill="#4953BE"/>
<rect width="248.064" height="3.70311" transform="matrix(0.798849 -0.601532 0.485994 0.873962 1387.22 421.488)" fill="#4953BE"/>
<rect width="248.064" height="3.70311" transform="matrix(0.798849 -0.601532 0.485994 0.873962 1393.31 432.438)" fill="#4953BE"/>
<rect width="248.064" height="3.70311" transform="matrix(0.798849 -0.601532 0.485994 0.873962 1406.44 469.922)" fill="#4953BE"/>
<rect width="248.064" height="3.70311" transform="matrix(0.798849 -0.601532 0.485994 0.873962 1400.35 458.972)" fill="#4953BE"/>
<rect width="248.064" height="3.70311" transform="matrix(0.798849 -0.601532 0.485994 0.873962 1394.26 448.022)" fill="#4953BE"/>
<rect width="248.064" height="3.70311" transform="matrix(0.798849 -0.601532 0.485994 0.873962 1412.53 480.872)" fill="#4953BE"/>
<rect width="248.064" height="3.70311" transform="matrix(0.798849 -0.601532 0.485994 0.873962 1418.62 491.821)" fill="#4953BE"/>
<rect width="248.064" height="3.70311" transform="matrix(0.798849 -0.601532 0.485994 0.873962 1424.71 502.771)" fill="#4953BE"/>
<rect width="248.064" height="3.70311" transform="matrix(0.798849 -0.601532 0.485994 0.873962 1430.8 513.721)" fill="#4953BE"/>
<rect width="248.064" height="3.70311" transform="matrix(0.798849 -0.601532 0.485994 0.873962 1267.73 246.408)" fill="#4953BE"/>
<rect width="248.064" height="3.70311" transform="matrix(0.798849 -0.601532 0.485994 0.873962 1261.64 235.458)" fill="#4953BE"/>
<rect width="248.064" height="3.70311" transform="matrix(0.798849 -0.601532 0.485994 0.873962 1255.55 224.509)" fill="#4953BE"/>
<rect width="248.064" height="3.70311" transform="matrix(0.798849 -0.601532 0.485994 0.873962 1273.82 257.358)" fill="#4953BE"/>
<rect width="248.064" height="3.70311" transform="matrix(0.798849 -0.601532 0.485994 0.873962 1279.91 268.308)" fill="#4953BE"/>
<rect width="248.064" height="3.70311" transform="matrix(0.798849 -0.601532 0.485994 0.873962 1285.99 279.258)" fill="#4953BE"/>
<rect width="248.064" height="3.70311" transform="matrix(0.798849 -0.601532 0.485994 0.873962 1292.08 290.208)" fill="#4953BE"/>
<rect width="248.064" height="3.70311" transform="matrix(0.798849 -0.601532 0.485994 0.873962 1305.22 327.691)" fill="#4953BE"/>
<rect width="248.064" height="3.70311" transform="matrix(0.798849 -0.601532 0.485994 0.873962 1299.13 316.742)" fill="#4953BE"/>
<rect width="248.064" height="3.70311" transform="matrix(0.798849 -0.601532 0.485994 0.873962 1293.04 305.792)" fill="#4953BE"/>
<rect width="248.064" height="3.70311" transform="matrix(0.798849 -0.601532 0.485994 0.873962 1311.3 338.641)" fill="#4953BE"/>
<rect width="248.064" height="3.70311" transform="matrix(0.798849 -0.601532 0.485994 0.873962 1317.39 349.591)" fill="#4953BE"/>
<rect width="248.064" height="3.70311" transform="matrix(0.798849 -0.601532 0.485994 0.873962 1323.48 360.541)" fill="#4953BE"/>
<rect width="248.064" height="3.70311" transform="matrix(0.798849 -0.601532 0.485994 0.873962 1329.57 371.491)" fill="#4953BE"/>
</g>
<ellipse cx="87.1567" cy="27.812" rx="112.895" ry="179.443" transform="rotate(28.1327 87.1567 27.812)" fill="#C7CAEB"/>
</svg>
