<svg width="35" height="33" viewBox="0 0 35 33" fill="none" xmlns="http://www.w3.org/2000/svg">
<path d="M17.1644 0.438477L22.829 10.4226L34.0749 12.7247L26.3299 21.1974L27.6157 32.6043L17.1644 27.8565L6.71306 32.6043L7.99884 21.1974L0.253799 12.7247L11.4998 10.4226L17.1644 0.438477Z" fill="#FF7C7C"/>
</svg>
