<svg width="380" height="812" viewBox="0 0 380 812" fill="none" xmlns="http://www.w3.org/2000/svg">
<path opacity="0.4" d="M293 336C341 236 241 246 307 166C411 76 407 255.6 487 486C567 716.4 419 582 321 486C337.667 473.333 246.193 433.515 293 336Z" fill="#A1A7E3"/>
<path opacity="0.4" d="M85.6525 499.668C32.6686 546.885 132.691 551.677 62.8416 586.693C-45.3394 623.112 -31.9769 530.095 -99.5404 402.261C-167.104 274.426 -26.8657 359.123 65.6286 418.849C48.3837 423.772 137.319 453.625 85.6525 499.668Z" fill="#A1A7E3"/>
<ellipse rx="47.5" ry="75.5" transform="matrix(-0.881858 0.471515 0.471515 0.881858 381.488 16.5)" fill="#6C74CD"/>
<ellipse opacity="0.5" cx="387.801" cy="823.021" rx="51.9031" ry="75.5" transform="rotate(52.1943 387.801 823.021)" fill="#A1A7E3"/>
<g opacity="0.6">
<mask id="mask0" mask-type="alpha" maskUnits="userSpaceOnUse" x="-84" y="145" width="103" height="147">
<ellipse cx="-32.4999" cy="218.5" rx="47.5" ry="75.5" transform="rotate(17.4943 -32.4999 218.5)" fill="#4953BE"/>
</mask>
<g mask="url(#mask0)">
<rect width="193.596" height="3.89" transform="matrix(0.870983 0.491313 -0.606392 0.795166 -26.2992 162.11)" fill="#F7A491"/>
<rect width="193.596" height="3.89" transform="matrix(0.870983 0.491313 -0.606392 0.795166 -20.37 154.335)" fill="#F7A491"/>
<rect width="193.596" height="3.89" transform="matrix(0.870983 0.491313 -0.606392 0.795166 -14.4407 146.56)" fill="#F7A491"/>
<rect width="193.596" height="3.89" transform="matrix(0.870983 0.491313 -0.606392 0.795166 -32.2285 169.885)" fill="#F7A491"/>
<rect width="193.596" height="3.89" transform="matrix(0.870983 0.491313 -0.606392 0.795166 -38.1577 177.66)" fill="#F7A491"/>
<rect width="193.596" height="3.89" transform="matrix(0.870983 0.491313 -0.606392 0.795166 -44.0869 185.435)" fill="#F7A491"/>
<rect width="193.596" height="3.89" transform="matrix(0.870983 0.491313 -0.606392 0.795166 -50.0162 193.21)" fill="#F7A491"/>
<rect width="193.596" height="3.89" transform="matrix(0.870983 0.491313 -0.606392 0.795166 -72.7223 214.31)" fill="#F7A491"/>
<rect width="193.596" height="3.89" transform="matrix(0.870983 0.491313 -0.606392 0.795166 -66.7931 206.535)" fill="#F7A491"/>
<rect width="193.596" height="3.89" transform="matrix(0.870983 0.491313 -0.606392 0.795166 -60.8639 198.76)" fill="#F7A491"/>
<rect width="193.596" height="3.89" transform="matrix(0.870983 0.491313 -0.606392 0.795166 -78.6516 222.086)" fill="#F7A491"/>
<rect width="193.596" height="3.89" transform="matrix(0.870983 0.491313 -0.606392 0.795166 -84.5809 229.861)" fill="#F7A491"/>
<rect width="193.596" height="3.89" transform="matrix(0.870983 0.491313 -0.606392 0.795166 -90.5101 237.636)" fill="#F7A491"/>
<rect width="193.596" height="3.89" transform="matrix(0.870983 0.491313 -0.606392 0.795166 -96.4395 245.411)" fill="#F7A491"/>
</g>
</g>
<g opacity="0.6">
<mask id="mask1" mask-type="alpha" maskUnits="userSpaceOnUse" x="363" y="525" width="103" height="147">
<ellipse cx="414.5" cy="598.5" rx="47.5" ry="75.5" transform="rotate(17.4943 414.5 598.5)" fill="#4953BE"/>
</mask>
<g mask="url(#mask1)">
<rect width="193.596" height="3.89" transform="matrix(0.870983 0.491313 -0.606392 0.795166 374.278 589.311)" fill="#F7A491"/>
<rect width="193.596" height="3.89" transform="matrix(0.870983 0.491313 -0.606392 0.795166 380.207 581.535)" fill="#F7A491"/>
<rect width="193.596" height="3.89" transform="matrix(0.870983 0.491313 -0.606392 0.795166 368.348 597.086)" fill="#F7A491"/>
<rect width="193.596" height="3.89" transform="matrix(0.870983 0.491313 -0.606392 0.795166 362.419 609.861)" fill="#F7A491"/>
<rect width="193.596" height="3.89" transform="matrix(0.870983 0.491313 -0.606392 0.795166 356.49 617.636)" fill="#F7A491"/>
<rect width="193.596" height="3.89" transform="matrix(0.870983 0.491313 -0.606392 0.795166 350.561 625.411)" fill="#F7A491"/>
</g>
</g>
</svg>
